…
    ## `summarise()` has grouped output by 'id', 'year'. You can override using the
    ## `.groups` argument.

``` r
ny_no
```

    ## # A tibble: 14,111 × 4
    ## # Groups:   id, year [7,409]
    ##    id          year  month mean_max
    ##    <chr>       <chr> <chr>    <dbl>
    ##  1 US1NYAB0001 2008  01           0
    ##  2 US1NYAB0001 2008  07           0
    ##  3 US1NYAB0001 2009  01           0
    ##  4 US1NYAB0001 2009  07           0
    ##  5 US1NYAB0001 2010  01           0
    ##  6 US1NYAB0001 2010  07           0
    ##  7 US1NYAB0006 2009  01           0
    ##  8 US1NYAB0006 2009  07           0
    ##  9 US1NYAB0006 2010  01           0
    ## 10 US1NYAB0006 2010  07           0
    ## # … with 14,101 more rows
